EDA - Malawi
…
  pivot_longer(
    cols = where(is.numeric),   # só variáveis numéricas
    names_to = "variavel",
    values_to = "valor"
  ) %>%
  group_by(env, variavel) %>%
  summarise(presenca = as.integer(any(!is.na(valor))), .groups = "drop") %>%
  pivot_wider(
    names_from = env,
    values_from = presenca,
    values_fill = 0
  ) # filtrei só para as variáveis numéricas 
tabela_pa

# A tibble: 31 × 5
   variavel       E0248 E0249 E0250 E0251
   <chr>          <int> <int> <int> <int>
 1 ELEV               1     1     1     1
 2 FLW_DAYS           1     1     1     1
 3 GY                 1     1     1     1
 4 LAT                1     1     1     1
 5 LOD                1     1     1     1
 6 LON                1     1     1     1
 7 NDM                1     1     1     1
 8 OIL                0     0     0     0
 9 PH_R8              1     1     1     1
10 PL_EMERG_COUNT     1     1     1     1
# ℹ 21 more rows
…
